<svg width="14" height="11" viewBox="0 0 14 11" fill="none" xmlns="http://www.w3.org/2000/svg">
<path d="M13 2.125C13 1.50625 12.46 1 11.8 1H2.2C1.54 1 1 1.50625 1 2.125M13 2.125V8.875C13 9.49375 12.46 10 11.8 10H2.2C1.54 10 1 9.49375 1 8.875V2.125M13 2.125L7 6.0625L1 2.125" stroke="#4B5256" stroke-linecap="round" stroke-linejoin="round"/>
</svg>
