<svg width="14" height="15" viewBox="0 0 14 15" fill="none" xmlns="http://www.w3.org/2000/svg">
<path d="M12.5556 14V12.5556C12.5556 11.7894 12.2512 11.0546 11.7094 10.5128C11.1676 9.97103 10.4328 9.66667 9.66667 9.66667H3.88889C3.12271 9.66667 2.38791 9.97103 1.84614 10.5128C1.30436 11.0546 1 11.7894 1 12.5556V14" stroke="#4B5256" stroke-linecap="round" stroke-linejoin="round"/>
<path d="M6.77778 6.77778C8.37327 6.77778 9.66667 5.48438 9.66667 3.88889C9.66667 2.2934 8.37327 1 6.77778 1C5.18229 1 3.88889 2.2934 3.88889 3.88889C3.88889 5.48438 5.18229 6.77778 6.77778 6.77778Z" stroke="#4B5256" stroke-linecap="round" stroke-linejoin="round"/>
</svg>
